%YAML 1.1
%TAG !u! tag:unity3d.com,2011:
--- !u!1 &288607197735905927
GameObject:
  m_ObjectHideFlags: 0
  m_CorrespondingSourceObject: {fileID: 0}
  m_PrefabInstance: {fileID: 0}
  m_PrefabAsset: {fileID: 0}
  serializedVersion: 6
  m_Component:
  - component: {fileID: 291786548061157943}
  - component: {fileID: 322683706635404789}
  - component: {fileID: 312528392041271555}
  - component: {fileID: 353455607928597487}
  - component: {fileID: 8958407480412519176}
  m_Layer: 0
  m_Name: PodHolder
  m_TagString: Untagged
  m_Icon: {fileID: 0}
  m_NavMeshLayer: 0
  m_StaticEditorFlags: 0
  m_IsActive: 1
--- !u!4 &291786548061157943
Transform:
  m_ObjectHideFlags: 0
  m_CorrespondingSourceObject: {fileID: 0}
  m_PrefabInstance: {fileID: 0}
  m_PrefabAsset: {fileID: 0}
  m_GameObject: {fileID: 288607197735905927}
  m_LocalRotation: {x: 0, y: 0, z: 0, w: 1}
  m_LocalPosition: {x: 0, y: 0, z: 1.75}
  m_LocalScale: {x: 1, y: 1, z: 1}
  m_Children: []
  m_Father: {fileID: 0}
  m_RootOrder: 0
  m_LocalEulerAnglesHint: {x: 0, y: 0, z: 0}
--- !u!33 &322683706635404789
MeshFilter:
  m_ObjectHideFlags: 0
  m_CorrespondingSourceObject: {fileID: 0}
  m_PrefabInstance: {fileID: 0}
  m_PrefabAsset: {fileID: 0}
  m_GameObject: {fileID: 288607197735905927}
  m_Mesh: {fileID: 0}
--- !u!23 &312528392041271555
MeshRenderer:
  m_ObjectHideFlags: 0
  m_CorrespondingSourceObject: {fileID: 0}
  m_PrefabInstance: {fileID: 0}
  m_PrefabAsset: {fileID: 0}
  m_GameObject: {fileID: 288607197735905927}
  m_Enabled: 1
  m_CastShadows: 1
  m_ReceiveShadows: 1
  m_DynamicOccludee: 1
  m_MotionVectors: 1
  m_LightProbeUsage: 1
  m_ReflectionProbeUsage: 1
  m_RenderingLayerMask: 4294967295
  m_RendererPriority: 0
  m_Materials:
  - {fileID: 2100000, guid: c91ea5393f73a814888ae7c250232e43, type: 2}
  - {fileID: 2100000, guid: 15cb6b096bb78c7479c93c6e26153387, type: 2}
  m_StaticBatchInfo:
    firstSubMesh: 0
    subMeshCount: 0
  m_StaticBatchRoot: {fileID: 0}
  m_ProbeAnchor: {fileID: 0}
  m_LightProbeVolumeOverride: {fileID: 0}
  m_ScaleInLightmap: 1
  m_PreserveUVs: 0
  m_IgnoreNormalsForChartDetection: 0
  m_ImportantGI: 0
  m_StitchLightmapSeams: 0
  m_SelectedEditorRenderState: 2
  m_MinimumChartSize: 4
  m_AutoUVMaxDistance: 0.5
  m_AutoUVMaxAngle: 89
  m_LightmapParameters: {fileID: 0}
  m_SortingLayerID: 0
  m_SortingLayer: 0
  m_SortingOrder: 0
--- !u!64 &353455607928597487
MeshCollider:
  m_ObjectHideFlags: 0
  m_CorrespondingSourceObject: {fileID: 0}
  m_PrefabInstance: {fileID: 0}
  m_PrefabAsset: {fileID: 0}
  m_GameObject: {fileID: 288607197735905927}
  m_Material: {fileID: 0}
  m_IsTrigger: 0
  m_Enabled: 1
  serializedVersion: 3
  m_Convex: 0
  m_CookingOptions: 14
  m_Mesh: {fileID: 0}
--- !u!114 &8958407480412519176
MonoBehaviour:
  m_ObjectHideFlags: 0
  m_CorrespondingSourceObject: {fileID: 0}
  m_PrefabInstance: {fileID: 0}
  m_PrefabAsset: {fileID: 0}
  m_GameObject: {fileID: 288607197735905927}
  m_Enabled: 1
  m_EditorHideFlags: 0
  m_Script: {fileID: 11500000, guid: 8233d90336aea43098adf6dbabd606a2, type: 3}
  m_Name: 
  m_EditorClassIdentifier: 
  m_MeshFormatVersion: 1
  m_Faces:
  - m_Indexes: 4c0000004d0000004e000000
    m_SmoothingGroup: 1
    m_Uv:
      m_UseWorldSpace: 0
      m_FlipU: 0
      m_FlipV: 0
      m_SwapUV: 0
      m_Fill: 1
      m_Scale: {x: 1, y: 1}
      m_Offset: {x: 0, y: 0}
      m_Rotation: 0
      m_Anchor: 9
    m_Material: {fileID: 0}
    m_SubmeshIndex: 0
    m_ManualUV: 1
    elementGroup: -1
    m_TextureGroup: -1
  - m_Indexes: 610000006200000063000000
    m_SmoothingGroup: 1
    m_Uv:
      m_UseWorldSpace: 0
      m_FlipU: 0
      m_FlipV: 0
      m_SwapUV: 0
      m_Fill: 1
      m_Scale: {x: 1, y: 1}
      m_Offset: {x: 0, y: 0}
      m_Rotation: 0
      m_Anchor: 9
    m_Material: {fileID: 0}
    m_SubmeshIndex: 0
    m_ManualUV: 1
    elementGroup: -1
    m_TextureGroup: -1
  - m_Indexes: 9d0000009e0000009f000000
    m_SmoothingGroup: 1
    m_Uv:
      m_UseWorldSpace: 0
      m_FlipU: 0
      m_FlipV: 0
      m_SwapUV: 0
      m_Fill: 1
      m_Scale: {x: 1, y: 1}
      m_Offset: {x: 0, y: 0}
      m_Rotation: 0
      m_Anchor: 9
    m_Material: {fileID: 0}
    m_SubmeshIndex: 1
    m_ManualUV: 1
    elementGroup: -1
    m_TextureGroup: -1
  - m_Indexes: a4000000a5000000a6000000
    m_SmoothingGroup: 2
    m_Uv:
      m_UseWorldSpace: 0
      m_FlipU: 0
      m_FlipV: 0
      m_SwapUV: 0
      m_Fill: 1
      m_Scale: {x: 1, y: 1}
      m_Offset: {x: 0, y: 0}
      m_Rotation: 0
      m_Anchor: 9
    m_Material: {fileID: 0}
    m_SubmeshIndex: 1
    m_ManualUV: 1
    elementGroup: -1
    m_TextureGroup: -1
  - m_Indexes: 000000000100000002000000030000000000000002000000
    m_SmoothingGroup: 3
    m_Uv:
      m_UseWorldSpace: 0
      m_FlipU: 0
      m_FlipV: 0
      m_SwapUV: 0
      m_Fill: 1
      m_Scale: {x: 1, y: 1}
      m_Offset: {x: 0, y: 0}
      m_Rotation: 0
      m_Anchor: 9
    m_Material: {fileID: 0}
    m_SubmeshIndex: 0
    m_ManualUV: 1
    elementGroup: -1
    m_TextureGroup: -1
  - m_Indexes: 040000000500000006000000070000000400000006000000
    m_SmoothingGroup: 3
    m_Uv:
      m_UseWorldSpace: 0
      m_FlipU: 0
      m_FlipV: 0
      m_SwapUV: 0
      m_Fill: 1
      m_Scale: {x: 1, y: 1}
      m_Offset: {x: 0, y: 0}
      m_Rotation: 0
      m_Anchor: 9
    m_Material: {fileID: 0}
    m_SubmeshIndex: 0
    m_ManualUV: 1
    elementGroup: -1
    m_TextureGroup: -1
  - m_Indexes: 08000000090000000a000000080000000a0000000b000000
    m_SmoothingGroup: 3
    m_Uv:
      m_UseWorldSpace: 0
      m_FlipU: 0
      m_FlipV: 0
      m_SwapUV: 0
      m_Fill: 1
      m_Scale: {x: 1, y: 1}
      m_Offset: {x: 0, y: 0}
      m_Rotation: 0
      m_Anchor: 9
    m_Material: {fileID: 0}
    m_SubmeshIndex: 0
    m_ManualUV: 1
    elementGroup: -1
    m_TextureGroup: -1
  - m_Indexes: 0c0000000d0000000e0000000d0000000f0000000e000000
    m_SmoothingGroup: 1
    m_Uv:
      m_UseWorldSpace: 0
      m_FlipU: 0
      m_FlipV: 0
      m_SwapUV: 0
      m_Fill: 1
      m_Scale: {x: 1, y: 1}
      m_Offset: {x: 0, y: 0}
      m_Rotation: 0
      m_Anchor: 9
    m_Material: {fileID: 0}
    m_SubmeshIndex: 0
    m_ManualUV: 1
    elementGroup: -1
    m_TextureGroup: -1
  - m_Indexes: 100000001100000012000000110000001300000012000000
    m_SmoothingGroup: 2
    m_Uv:
      m_UseWorldSpace: 0
      m_FlipU: 0
      m_FlipV: 0
      m_SwapUV: 0
      m_Fill: 1
      m_Scale: {x: 1, y: 1}
      m_Offset: {x: 0, y: 0}
      m_Rotation: 0
      m_Anchor: 9
    m_Material: {fileID: 0}
    m_SubmeshIndex: 0
    m_ManualUV: 1
    elementGroup: -1
    m_TextureGroup: -1
  - m_Indexes: 140000001500000016000000150000001700000016000000
    m_SmoothingGroup: 1
    m_Uv:
      m_UseWorldSpace: 0
      m_FlipU: 0
      m_FlipV: 0
      m_SwapUV: 0
      m_Fill: 1
      m_Scale: {x: 1, y: 1}
      m_Offset: {x: 0, y: 0}
      m_Rotation: 0
      m_Anchor: 9
    m_Material: {fileID: 0}
    m_SubmeshIndex: 0
    m_ManualUV: 1
    elementGroup: -1
    m_TextureGroup: -1
  - m_Indexes: 18000000190000001a000000190000001b0000001a000000
    m_SmoothingGroup: 2
    m_Uv:
      m_UseWorldSpace: 0
      m_FlipU: 0
      m_FlipV: 0
      m_SwapUV: 0
      m_Fill: 1
      m_Scale: {x: 1, y: 1}
      m_Offset: {x: 0, y: 0}
      m_Rotation: 0
      m_Anchor: 9
    m_Material: {fileID: 0}
    m_SubmeshIndex: 0
    m_ManualUV: 1
    elementGroup: -1
    m_TextureGroup: -1
  - m_Indexes: 1c0000001d0000001e0000001d0000001f0000001e000000
    m_SmoothingGroup: 3
    m_Uv:
      m_UseWorldSpace: 0
      m_FlipU: 0
      m_FlipV: 0
      m_SwapUV: 0
      m_Fill: 1
      m_Scale: {x: 1, y: 1}
      m_Offset: {x: 0, y: 0}
      m_Rotation: 0
      m_Anchor: 9
    m_Material: {fileID: 0}
    m_SubmeshIndex: 0
    m_ManualUV: 1
    elementGroup: -1
    m_TextureGroup: -1
  - m_Indexes: 200000002100000022000000200000002300000021000000
    m_SmoothingGroup: 4
    m_Uv:
      m_UseWorldSpace: 0
      m_FlipU: 0
      m_FlipV: 0
      m_SwapUV: 0
      m_Fill: 1
      m_Scale: {x: 1, y: 1}
      m_Offset: {x: 0, y: 0}
      m_Rotation: 0
      m_Anchor: 9
    m_Material: {fileID: 0}
    m_SubmeshIndex: 0
    m_ManualUV: 1
    elementGroup: -1
    m_TextureGroup: -1
  - m_Indexes: 240000002500000026000000240000002700000025000000
    m_SmoothingGroup: 4
    m_Uv:
      m_UseWorldSpace: 0
      m_FlipU: 0
      m_FlipV: 0
      m_SwapUV: 0
      m_Fill: 1
      m_Scale: {x: 1, y: 1}
      m_Offset: {x: 0, y: 0}
      m_Rotation: 0
      m_Anchor: 9
    m_Material: {fileID: 0}
    m_SubmeshIndex: 0
    m_ManualUV: 1
    elementGroup: -1
    m_TextureGroup: -1
  - m_Indexes: 28000000290000002a000000280000002b00000029000000
    m_SmoothingGroup: 4
    m_Uv:
      m_UseWorldSpace: 0
      m_FlipU: 0
      m_FlipV: 0
      m_SwapUV: 0
      m_Fill: 1
      m_Scale: {x: 1, y: 1}
      m_Offset: {x: 0, y: 0}
      m_Rotation: 0
      m_Anchor: 9
    m_Material: {fileID: 0}
    m_SubmeshIndex: 0
    m_ManualUV: 1
    elementGroup: -1
    m_TextureGroup: -1
  - m_Indexes: 2c0000002d0000002e0000002c0000002f0000002d000000
    m_SmoothingGroup: 4
    m_Uv:
      m_UseWorldSpace: 0
      m_FlipU: 0
      m_FlipV: 0
      m_SwapUV: 0
      m_Fill: 1
      m_Scale: {x: 1, y: 1}
      m_Offset: {x: 0, y: 0}
      m_Rotation: 0
      m_Anchor: 9
    m_Material: {fileID: 0}
    m_SubmeshIndex: 0
    m_ManualUV: 1
    elementGroup: -1
    m_TextureGroup: -1
  - m_Indexes: 300000003100000032000000300000003200000033000000
    m_SmoothingGroup: 4
    m_Uv:
      m_UseWorldSpace: 0
      m_FlipU: 0
      m_FlipV: 0
      m_SwapUV: 0
      m_Fill: 1
      m_Scale: {x: 1, y: 1}
      m_Offset: {x: 0, y: 0}
      m_Rotation: 0
      m_Anchor: 9
    m_Material: {fileID: 0}
    m_SubmeshIndex: 0
    m_ManualUV: 1
    elementGroup: -1
    m_TextureGroup: -1
  - m_Indexes: 340000003500000036000000340000003700000035000000
    m_SmoothingGroup: 4
    m_Uv:
      m_UseWorldSpace: 0
      m_FlipU: 0
      m_FlipV: 0
      m_SwapUV: 0
      m_Fill: 1
      m_Scale: {x: 1, y: 1}
      m_Offset: {x: 0, y: 0}
      m_Rotation: 0
      m_Anchor: 9
    m_Material: {fileID: 0}
    m_SubmeshIndex: 0
    m_ManualUV: 1
    elementGroup: -1
    m_TextureGroup: -1
  - m_Indexes: 38000000390000003a0000003a000000390000003b000000
    m_SmoothingGroup: 1
    m_Uv:
      m_UseWorldSpace: 0
      m_FlipU: 0
      m_FlipV: 0
      m_SwapUV: 0
      m_Fill: 1
      m_Scale: {x: 1, y: 1}
      m_Offset: {x: 0, y: 0}
      m_Rotation: 0
      m_Anchor: 9
    m_Material: {fileID: 0}
    m_SubmeshIndex: 0
    m_ManualUV: 1
    elementGroup: -1
    m_TextureGroup: -1
  - m_Indexes: 3c0000003d0000003e0000003e0000003d0000003f000000
    m_SmoothingGroup: 2
    m_Uv:
      m_UseWorldSpace: 0
      m_FlipU: 0
      m_FlipV: 0
      m_SwapUV: 0
      m_Fill: 1
      m_Scale: {x: 1, y: 1}
      m_Offset: {x: 0, y: 0}
      m_Rotation: 0
      m_Anchor: 9
    m_Material: {fileID: 0}
    m_SubmeshIndex: 0
    m_ManualUV: 1
    elementGroup: -1
    m_TextureGroup: -1
  - m_Indexes: 400000004100000042000000430000004000000042000000
    m_SmoothingGroup: 5
    m_Uv:
      m_UseWorldSpace: 0
      m_FlipU: 0
      m_FlipV: 0
      m_SwapUV: 0
      m_Fill: 1
      m_Scale: {x: 1, y: 1}
      m_Offset: {x: 0, y: 0}
      m_Rotation: 0
      m_Anchor: 9
    m_Material: {fileID: 0}
    m_SubmeshIndex: 0
    m_ManualUV: 1
    elementGroup: -1
    m_TextureGroup: -1
  - m_Indexes: 440000004500000046000000470000004400000046000000
    m_SmoothingGroup: 5
    m_Uv:
      m_UseWorldSpace: 0
      m_FlipU: 0
      m_FlipV: 0
      m_SwapUV: 0
      m_Fill: 1
      m_Scale: {x: 1, y: 1}
      m_Offset: {x: 0, y: 0}
      m_Rotation: 0
      m_Anchor: 9
    m_Material: {fileID: 0}
    m_SubmeshIndex: 1
    m_ManualUV: 1
    elementGroup: -1
    m_TextureGroup: -1
  - m_Indexes: 48000000490000004a0000004a000000490000004b000000
    m_SmoothingGroup: 1
    m_Uv:
      m_UseWorldSpace: 0
      m_FlipU: 0
      m_FlipV: 0
      m_SwapUV: 0
      m_Fill: 1
      m_Scale: {x: 1, y: 1}
      m_Offset: {x: 0, y: 0}
      m_Rotation: 0
      m_Anchor: 9
    m_Material: {fileID: 0}
    m_SubmeshIndex: 0
    m_ManualUV: 1
    elementGroup: -1
    m_TextureGroup: -1
  - m_Indexes: 4f00000050000000510000009c0000005100000050000000
    m_SmoothingGroup: 1
    m_Uv:
      m_UseWorldSpace: 0
      m_FlipU: 0
      m_FlipV: 0
      m_SwapUV: 0
      m_Fill: 1
      m_Scale: {x: 1, y: 1}
      m_Offset: {x: 0, y: 0}
      m_Rotation: 0
      m_Anchor: 9
    m_Material: {fileID: 0}
    m_SubmeshIndex: 0
    m_ManualUV: 1
    elementGroup: -1
    m_TextureGroup: -1
  - m_Indexes: 520000005300000054000000540000005300000055000000
    m_SmoothingGroup: 2
    m_Uv:
      m_UseWorldSpace: 0
      m_FlipU: 0
      m_FlipV: 0
      m_SwapUV: 0
      m_Fill: 1
      m_Scale: {x: 1, y: 1}
      m_Offset: {x: 0, y: 0}
      m_Rotation: 0
      m_Anchor: 9
    m_Material: {fileID: 0}
    m_SubmeshIndex: 0
    m_ManualUV: 1
    elementGroup: -1
    m_TextureGroup: -1
  - m_Indexes: 5600000057000000580000005700000056000000a7000000
    m_SmoothingGroup: 2
    m_Uv:
      m_UseWorldSpace: 0
      m_FlipU: 0
      m_FlipV: 0
      m_SwapUV: 0
      m_Fill: 1
      m_Scale: {x: 1, y: 1}
      m_Offset: {x: 0, y: 0}
      m_Rotation: 0
      m_Anchor: 9
    m_Material: {fileID: 0}
    m_SubmeshIndex: 0
    m_ManualUV: 1
    elementGroup: -1
    m_TextureGroup: -1
  - m_Indexes: 590000005a0000005b0000005b0000006000000059000000
    m_SmoothingGroup: 2
    m_Uv:
      m_UseWorldSpace: 0
      m_FlipU: 0
      m_FlipV: 0
      m_SwapUV: 0
      m_Fill: 1
      m_Scale: {x: 1, y: 1}
      m_Offset: {x: 0, y: 0}
      m_Rotation: 0
      m_Anchor: 9
    m_Material: {fileID: 0}
    m_SubmeshIndex: 0
    m_ManualUV: 1
    elementGroup: -1
    m_TextureGroup: -1
  - m_Indexes: 5c0000005d0000005e0000005c0000005f0000005d000000
    m_SmoothingGroup: 3
    m_Uv:
      m_UseWorldSpace: 0
      m_FlipU: 0
      m_FlipV: 0
      m_SwapUV: 0
      m_Fill: 1
      m_Scale: {x: 1, y: 1}
      m_Offset: {x: 0, y: 0}
      m_Rotation: 0
      m_Anchor: 9
    m_Material: {fileID: 0}
    m_SubmeshIndex: 0
    m_ManualUV: 1
    elementGroup: -1
    m_TextureGroup: -1
  - m_Indexes: 640000006500000066000000670000006400000066000000
    m_SmoothingGroup: 6
    m_Uv:
      m_UseWorldSpace: 0
      m_FlipU: 0
      m_FlipV: 0
      m_SwapUV: 0
      m_Fill: 1
      m_Scale: {x: 1, y: 1}
      m_Offset: {x: 0, y: 0}
      m_Rotation: 0
      m_Anchor: 9
    m_Material: {fileID: 0}
    m_SubmeshIndex: 1
    m_ManualUV: 1
    elementGroup: -1
    m_TextureGroup: -1
  - m_Indexes: 68000000690000006a000000680000006a0000006b000000
    m_SmoothingGroup: 6
    m_Uv:
      m_UseWorldSpace: 0
      m_FlipU: 0
      m_FlipV: 0
      m_SwapUV: 0
      m_Fill: 1
      m_Scale: {x: 1, y: 1}
      m_Offset: {x: 0, y: 0}
      m_Rotation: 0
      m_Anchor: 9
    m_Material: {fileID: 0}
    m_SubmeshIndex: 1
    m_ManualUV: 1
    elementGroup: -1
    m_TextureGroup: -1
  - m_Indexes: 6c0000006d0000006e0000006c0000006e0000006f000000
    m_SmoothingGroup: 6
    m_Uv:
      m_UseWorldSpace: 0
      m_FlipU: 0
      m_FlipV: 0
      m_SwapUV: 0
      m_Fill: 1
      m_Scale: {x: 1, y: 1}
      m_Offset: {x: 0, y: 0}
      m_Rotation: 0
      m_Anchor: 9
    m_Material: {fileID: 0}
    m_SubmeshIndex: 1
    m_ManualUV: 1
    elementGroup: -1
    m_TextureGroup: -1
  - m_Indexes: 700000007100000072000000710000007300000072000000
    m_SmoothingGroup: 0
    m_Uv:
      m_UseWorldSpace: 0
      m_FlipU: 0
      m_FlipV: 0
      m_SwapUV: 0
      m_Fill: 1
      m_Scale: {x: 1, y: 1}
      m_Offset: {x: 0, y: 0}
      m_Rotation: 0
      m_Anchor: 9
    m_Material: {fileID: 0}
    m_SubmeshIndex: 0
    m_ManualUV: 1
    elementGroup: -1
    m_TextureGroup: -1
  - m_Indexes: 740000007500000076000000750000007700000076000000
    m_SmoothingGroup: 0
    m_Uv:
      m_UseWorldSpace: 0
      m_FlipU: 0
      m_FlipV: 0
      m_SwapUV: 0
      m_Fill: 1
      m_Scale: {x: 1, y: 1}
      m_Offset: {x: 0, y: 0}
      m_Rotation: 0
      m_Anchor: 9
    m_Material: {fileID: 0}
    m_SubmeshIndex: 0
    m_ManualUV: 1
    elementGroup: -1
    m_TextureGroup: -1
  - m_Indexes: 78000000790000007a000000790000007b0000007a000000
    m_SmoothingGroup: 0
    m_Uv:
      m_UseWorldSpace: 0
      m_FlipU: 0
      m_FlipV: 0
      m_SwapUV: 0
      m_Fill: 1
      m_Scale: {x: 1, y: 1}
      m_Offset: {x: 0, y: 0}
      m_Rotation: 0
      m_Anchor: 9
    m_Material: {fileID: 0}
    m_SubmeshIndex: 0
    m_ManualUV: 1
    elementGroup: -1
    m_TextureGroup: -1
  - m_Indexes: 7c0000007d0000007e0000007d0000007f0000007e000000
    m_SmoothingGroup: 0
    m_Uv:
      m_UseWorldSpace: 0
      m_FlipU: 0
      m_FlipV: 0
      m_SwapUV: 0
      m_Fill: 1
      m_Scale: {x: 1, y: 1}
      m_Offset: {x: 0, y: 0}
      m_Rotation: 0
      m_Anchor: 9
    m_Material: {fileID: 0}
    m_SubmeshIndex: 0
    m_ManualUV: 1
    elementGroup: -1
    m_TextureGroup: -1
  - m_Indexes: 800000008100000082000000810000008300000082000000
    m_SmoothingGroup: 0
    m_Uv:
      m_UseWorldSpace: 0
      m_FlipU: 0
      m_FlipV: 0
      m_SwapUV: 0
      m_Fill: 1
      m_Scale: {x: 1, y: 1}
      m_Offset: {x: 0, y: 0}
      m_Rotation: 0
      m_Anchor: 9
    m_Material: {fileID: 0}
    m_SubmeshIndex: 0
    m_ManualUV: 1
    elementGroup: -1
    m_TextureGroup: -1
  - m_Indexes: 840000008500000086000000850000008700000086000000
    m_SmoothingGroup: 0
    m_Uv:
      m_UseWorldSpace: 0
      m_FlipU: 0
      m_FlipV: 0
      m_SwapUV: 0
      m_Fill: 1
      m_Scale: {x: 1, y: 1}
      m_Offset: {x: 0, y: 0}
      m_Rotation: 0
      m_Anchor: 9
    m_Material: {fileID: 0}
    m_SubmeshIndex: 0
    m_ManualUV: 1
    elementGroup: -1
    m_TextureGroup: -1
  - m_Indexes: 88000000890000008a000000890000008b0000008a000000
    m_SmoothingGroup: 0
    m_Uv:
      m_UseWorldSpace: 0
      m_FlipU: 0
      m_FlipV: 0
      m_SwapUV: 0
      m_Fill: 1
      m_Scale: {x: 1, y: 1}
      m_Offset: {x: 0, y: 0}
      m_Rotation: 0
      m_Anchor: 9
    m_Material: {fileID: 0}
    m_SubmeshIndex: 0
    m_ManualUV: 1
    elementGroup: -1
    m_TextureGroup: -1
  - m_Indexes: 8c0000008d0000008e0000008d0000008f0000008e000000
    m_SmoothingGroup: 0
    m_Uv:
      m_UseWorldSpace: 0
      m_FlipU: 0
      m_FlipV: 0
      m_SwapUV: 0
      m_Fill: 1
      m_Scale: {x: 1, y: 1}
      m_Offset: {x: 0, y: 0}
      m_Rotation: 0
      m_Anchor: 9
    m_Material: {fileID: 0}
    m_SubmeshIndex: 0
    m_ManualUV: 1
    elementGroup: -1
    m_TextureGroup: -1
  - m_Indexes: 900000009100000092000000920000009100000093000000
    m_SmoothingGroup: 1
    m_Uv:
      m_UseWorldSpace: 0
      m_FlipU: 0
      m_FlipV: 0
      m_SwapUV: 0
      m_Fill: 1
      m_Scale: {x: 1, y: 1}
      m_Offset: {x: 0, y: 0}
      m_Rotation: 0
      m_Anchor: 9
    m_Material: {fileID: 0}
    m_SubmeshIndex: 1
    m_ManualUV: 1
    elementGroup: -1
    m_TextureGroup: -1
  - m_Indexes: 940000009500000096000000960000009500000097000000
    m_SmoothingGroup: 2
    m_Uv:
      m_UseWorldSpace: 0
      m_FlipU: 0
      m_FlipV: 0
      m_SwapUV: 0
      m_Fill: 1
      m_Scale: {x: 1, y: 1}
      m_Offset: {x: 0, y: 0}
      m_Rotation: 0
      m_Anchor: 9
    m_Material: {fileID: 0}
    m_SubmeshIndex: 1
    m_ManualUV: 1
    elementGroup: -1
    m_TextureGroup: -1
  - m_Indexes: 98000000990000009a0000009a000000990000009b000000
    m_SmoothingGroup: 1
    m_Uv:
      m_UseWorldSpace: 0
      m_FlipU: 0
      m_FlipV: 0
      m_SwapUV: 0
      m_Fill: 1
      m_Scale: {x: 1, y: 1}
      m_Offset: {x: 0, y: 0}
      m_Rotation: 0
      m_Anchor: 9
    m_Material: {fileID: 0}
    m_SubmeshIndex: 1
    m_ManualUV: 1
    elementGroup: -1
    m_TextureGroup: -1
  - m_Indexes: a0000000a1000000a2000000a2000000a1000000a3000000
    m_SmoothingGroup: 2
    m_Uv:
      m_UseWorldSpace: 0
      m_FlipU: 0
      m_FlipV: 0
      m_SwapUV: 0
      m_Fill: 1
      m_Scale: {x: 1, y: 1}
      m_Offset: {x: 0, y: 0}
      m_Rotation: 0
      m_Anchor: 9
    m_Material: {fileID: 0}
    m_SubmeshIndex: 1
    m_ManualUV: 1
    elementGroup: -1
    m_TextureGroup: -1
  - m_Indexes: a8000000a9000000aa000000ab000000a8000000aa000000
    m_SmoothingGroup: 0
    m_Uv:
      m_UseWorldSpace: 0
      m_FlipU: 0
      m_FlipV: 0
      m_SwapUV: 0
      m_Fill: 1
      m_Scale: {x: 1, y: 1}
      m_Offset: {x: 0, y: 0}
      m_Rotation: 0
      m_Anchor: 9
    m_Material: {fileID: 0}
    m_SubmeshIndex: 0
    m_ManualUV: 1
    elementGroup: -1
    m_TextureGroup: -1
  - m_Indexes: ac000000ad000000ae000000ac000000af000000ad000000
    m_SmoothingGroup: 0
    m_Uv:
      m_UseWorldSpace: 0
      m_FlipU: 0
      m_FlipV: 0
      m_SwapUV: 0
      m_Fill: 1
      m_Scale: {x: 1, y: 1}
      m_Offset: {x: 0, y: 0}
      m_Rotation: 0
      m_Anchor: 9
    m_Material: {fileID: 0}
    m_SubmeshIndex: 0
    m_ManualUV: 1
    elementGroup: -1
    m_TextureGroup: -1
  - m_Indexes: b0000000b1000000b2000000b1000000b3000000b2000000
    m_SmoothingGroup: 0
    m_Uv:
      m_UseWorldSpace: 0
      m_FlipU: 0
      m_FlipV: 0
      m_SwapUV: 0
      m_Fill: 1
      m_Scale: {x: 1, y: 1}
      m_Offset: {x: 0, y: 0}
      m_Rotation: 0
      m_Anchor: 9
    m_Material: {fileID: 0}
    m_SubmeshIndex: 0
    m_ManualUV: 1
    elementGroup: -1
    m_TextureGroup: -1
  m_SharedVertices:
  - m_Vertices: 00000000130000005f00000060000000
  - m_Vertices: 010000000e0000005c00000063000000
  - m_Vertices: 02000000080000000f00000016000000
  - m_Vertices: 030000000b000000120000001b000000
  - m_Vertices: 04000000090000001700000081000000b0000000
  - m_Vertices: 050000001e0000007d00000080000000
  - m_Vertices: 060000001f000000880000008d000000
  - m_Vertices: 070000000a0000001a0000008c000000af000000
  - m_Vertices: 0c00000025000000370000004e00000062000000
  - m_Vertices: 0d000000140000002a00000034000000
  - m_Vertices: 10000000190000002800000036000000
  - m_Vertices: 11000000270000003500000059000000
  - m_Vertices: 15000000290000002e00000078000000b1000000
  - m_Vertices: 180000002b0000002c00000085000000ac000000
  - m_Vertices: 1c0000002d000000790000007c000000
  - m_Vertices: 1d0000002f0000008400000089000000
  - m_Vertices: 200000003f00000042000000
  - m_Vertices: 21000000300000003a00000049000000
  - m_Vertices: 220000004300000048000000
  - m_Vertices: 23000000310000003d00000054000000
  - m_Vertices: 240000003200000055000000580000005a000000
  - m_Vertices: 2600000033000000380000004d0000004f000000
  - m_Vertices: 3900000051000000900000009d000000
  - m_Vertices: 3b0000004b0000009200000099000000
  - m_Vertices: 3c0000005200000095000000a2000000
  - m_Vertices: 3e000000410000004600000097000000
  - m_Vertices: 40000000470000004a00000098000000
  - m_Vertices: 440000006f0000009a000000
  - m_Vertices: 450000006e00000096000000
  - m_Vertices: 4c000000500000005e00000061000000a9000000
  - m_Vertices: 5300000056000000a3000000a6000000
  - m_Vertices: 570000005b0000005d000000aa000000
  - m_Vertices: 6400000069000000a1000000a4000000
  - m_Vertices: 6500000068000000910000009f000000
  - m_Vertices: 660000009c0000009e000000a8000000
  - m_Vertices: 67000000a5000000a7000000ab000000
  - m_Vertices: 6a0000006d00000094000000a0000000
  - m_Vertices: 6b0000006c000000930000009b000000
  - m_Vertices: 700000007a000000b3000000
  - m_Vertices: 710000007b0000007e000000
  - m_Vertices: 7200000083000000b2000000
  - m_Vertices: 730000007f00000082000000
  - m_Vertices: 74000000860000008b000000
  - m_Vertices: 7500000087000000ae000000
  - m_Vertices: 760000008a0000008f000000
  - m_Vertices: 770000008e000000ad000000
  m_SharedTextures: []
  m_Positions:
  - {x: -0.12498778, y: 1.3125, z: -0.20277417}
  - {x: 0.12501222, y: 1.3125, z: -0.20275104}
  - {x: 0.12501246, y: 0.9375, z: -0.28127527}
  - {x: -0.12498751, y: 0.9375, z: -0.2813002}
  - {x: 0.15625, y: 0.5, z: -0.234375}
  - {x: 0.15625, y: 0, z: -0.265625}
  - {x: -0.15625, y: 0, z: -0.265625}
  - {x: -0.15625, y: 0.5, z: -0.234375}
  - {x: 0.12501246, y: 0.9375, z: -0.28127527}
  - {x: 0.15625, y: 0.5, z: -0.234375}
  - {x: -0.15625, y: 0.5, z: -0.234375}
  - {x: -0.12498751, y: 0.9375, z: -0.2813002}
  - {x: 0.125, y: 1.3827925, z: -0.078125}
  - {x: 0.125, y: 1.0000994, z: -0.140625}
  - {x: 0.12501222, y: 1.3125, z: -0.20275104}
  - {x: 0.12501246, y: 0.9375, z: -0.28127527}
  - {x: -0.125, y: 1.0000994, z: -0.140625}
  - {x: -0.125, y: 1.3828019, z: -0.078125}
  - {x: -0.12498751, y: 0.9375, z: -0.2813002}
  - {x: -0.12498778, y: 1.3125, z: -0.20277417}
  - {x: 0.125, y: 1.0000994, z: -0.140625}
  - {x: 0.15625, y: 0.6174066, z: -0.0625}
  - {x: 0.12501246, y: 0.9375, z: -0.28127527}
  - {x: 0.15625, y: 0.5, z: -0.234375}
  - {x: -0.15625, y: 0.61739707, z: -0.0625}
  - {x: -0.125, y: 1.0000994, z: -0.140625}
  - {x: -0.15625, y: 0.5, z: -0.234375}
  - {x: -0.12498751, y: 0.9375, z: -0.2813002}
  - {x: 0.15625, y: 0, z: 0.13662523}
  - {x: -0.15625, y: 0, z: 0.13660753}
  - {x: 0.15625, y: 0, z: -0.265625}
  - {x: -0.15625, y: 0, z: -0.265625}
  - {x: -0.125, y: 1.984375, z: 0.75}
  - {x: 0.125, y: 1.875, z: 0.4375}
  - {x: 0.125, y: 1.984375, z: 0.75}
  - {x: -0.125, y: 1.875, z: 0.4375}
  - {x: -0.125, y: 1.65625, z: 0.15625}
  - {x: 0.125, y: 1.3827925, z: -0.078125}
  - {x: 0.125, y: 1.65625, z: 0.15625}
  - {x: -0.125, y: 1.3828019, z: -0.078125}
  - {x: -0.125, y: 1.0000994, z: -0.140625}
  - {x: 0.15625, y: 0.6174066, z: -0.0625}
  - {x: 0.125, y: 1.0000994, z: -0.140625}
  - {x: -0.15625, y: 0.61739707, z: -0.0625}
  - {x: -0.15625, y: 0.61739707, z: -0.0625}
  - {x: 0.15625, y: 0, z: 0.13662523}
  - {x: 0.15625, y: 0.6174066, z: -0.0625}
  - {x: -0.15625, y: 0, z: 0.13660753}
  - {x: 0.125, y: 1.875, z: 0.4375}
  - {x: -0.125, y: 1.875, z: 0.4375}
  - {x: -0.125, y: 1.65625, z: 0.15625}
  - {x: 0.125, y: 1.65625, z: 0.15625}
  - {x: 0.125, y: 1.0000994, z: -0.140625}
  - {x: -0.125, y: 1.3828019, z: -0.078125}
  - {x: -0.125, y: 1.0000994, z: -0.140625}
  - {x: 0.125, y: 1.3827925, z: -0.078125}
  - {x: 0.125, y: 1.65625, z: 0.15625}
  - {x: 0.09375, y: 1.7415562, z: 0.10224342}
  - {x: 0.125, y: 1.875, z: 0.4375}
  - {x: 0.09375, y: 1.9728684, z: 0.4409857}
  - {x: -0.09375, y: 1.97288, z: 0.4409809}
  - {x: -0.125, y: 1.875, z: 0.4375}
  - {x: -0.09375, y: 2.0625, z: 0.75}
  - {x: -0.125, y: 1.984375, z: 0.75}
  - {x: 0.09375, y: 2.0625, z: 0.75}
  - {x: -0.09375, y: 2.0625, z: 0.75}
  - {x: -0.125, y: 1.984375, z: 0.75}
  - {x: 0.125, y: 1.984375, z: 0.75}
  - {x: 0.0625, y: 2.125, z: 0.71875}
  - {x: -0.0625, y: 2.125, z: 0.71875}
  - {x: -0.09375, y: 2.0625, z: 0.75}
  - {x: 0.09375, y: 2.0625, z: 0.75}
  - {x: 0.125, y: 1.984375, z: 0.75}
  - {x: 0.125, y: 1.875, z: 0.4375}
  - {x: 0.09375, y: 2.0625, z: 0.75}
  - {x: 0.09375, y: 1.9728684, z: 0.4409857}
  - {x: 0.09375, y: 1.4726462, z: -0.125}
  - {x: 0.125, y: 1.65625, z: 0.15625}
  - {x: 0.125, y: 1.3827925, z: -0.078125}
  - {x: 0.125, y: 1.65625, z: 0.15625}
  - {x: 0.09375, y: 1.4726462, z: -0.125}
  - {x: 0.09375, y: 1.7415562, z: 0.10224342}
  - {x: -0.09375, y: 1.97288, z: 0.4409809}
  - {x: -0.09375, y: 1.7415649, z: 0.10223454}
  - {x: -0.125, y: 1.875, z: 0.4375}
  - {x: -0.125, y: 1.65625, z: 0.15625}
  - {x: -0.09375, y: 1.7415649, z: 0.10223454}
  - {x: -0.09375, y: 1.472651, z: -0.125}
  - {x: -0.125, y: 1.65625, z: 0.15625}
  - {x: -0.125, y: 1.3828019, z: -0.078125}
  - {x: -0.125, y: 1.65625, z: 0.15625}
  - {x: -0.09375, y: 1.472651, z: -0.125}
  - {x: 0.12501222, y: 1.3125, z: -0.20275104}
  - {x: -0.09375, y: 1.472651, z: -0.125}
  - {x: 0.09375, y: 1.4726462, z: -0.125}
  - {x: -0.12498778, y: 1.3125, z: -0.20277417}
  - {x: -0.12498778, y: 1.3125, z: -0.20277417}
  - {x: 0.09375, y: 1.4726462, z: -0.125}
  - {x: 0.125, y: 1.3827925, z: -0.078125}
  - {x: 0.12501222, y: 1.3125, z: -0.20275104}
  - {x: -0.0625, y: 1.7956297, z: 0.048219085}
  - {x: 0.0625, y: 1.7956122, z: 0.048236847}
  - {x: 0.0625, y: 1.5625, z: -0.15625}
  - {x: -0.0625, y: 1.5625, z: -0.15625}
  - {x: 0.0625, y: 1.7956122, z: 0.048236847}
  - {x: -0.0625, y: 1.7956297, z: 0.048219085}
  - {x: -0.0625, y: 2.03951, z: 0.41321182}
  - {x: 0.0625, y: 2.039487, z: 0.41322142}
  - {x: 0.0625, y: 2.039487, z: 0.41322142}
  - {x: -0.0625, y: 2.03951, z: 0.41321182}
  - {x: -0.0625, y: 2.125, z: 0.71875}
  - {x: 0.0625, y: 2.125, z: 0.71875}
  - {x: 0.28125, y: 0.46875, z: -0.03125}
  - {x: 0.34375, y: 0.0000034889163, z: 0.13663518}
  - {x: 0.28125, y: 0.4375, z: -0.125}
  - {x: 0.34375, y: 0.0000034889163, z: -0.15625}
  - {x: -0.34375, y: -0.0000032027485, z: 0.13659841}
  - {x: -0.28125, y: 0.46875, z: -0.03125}
  - {x: -0.34375, y: -0.0000032027485, z: -0.15625}
  - {x: -0.28125, y: 0.4375, z: -0.125}
  - {x: 0.15625, y: 0.6174066, z: -0.0625}
  - {x: 0.15625, y: 0, z: 0.13662523}
  - {x: 0.28125, y: 0.46875, z: -0.03125}
  - {x: 0.34375, y: 0.0000034889163, z: 0.13663518}
  - {x: 0.15625, y: 0, z: 0.13662523}
  - {x: 0.15625, y: 0, z: -0.265625}
  - {x: 0.34375, y: 0.0000034889163, z: 0.13663518}
  - {x: 0.34375, y: 0.0000034889163, z: -0.15625}
  - {x: 0.15625, y: 0, z: -0.265625}
  - {x: 0.15625, y: 0.5, z: -0.234375}
  - {x: 0.34375, y: 0.0000034889163, z: -0.15625}
  - {x: 0.28125, y: 0.4375, z: -0.125}
  - {x: -0.15625, y: 0, z: 0.13660753}
  - {x: -0.15625, y: 0.61739707, z: -0.0625}
  - {x: -0.34375, y: -0.0000032027485, z: 0.13659841}
  - {x: -0.28125, y: 0.46875, z: -0.03125}
  - {x: -0.15625, y: 0, z: -0.265625}
  - {x: -0.15625, y: 0, z: 0.13660753}
  - {x: -0.34375, y: -0.0000032027485, z: -0.15625}
  - {x: -0.34375, y: -0.0000032027485, z: 0.13659841}
  - {x: -0.15625, y: 0.5, z: -0.234375}
  - {x: -0.15625, y: 0, z: -0.265625}
  - {x: -0.28125, y: 0.4375, z: -0.125}
  - {x: -0.34375, y: -0.0000032027485, z: -0.15625}
  - {x: 0.09375, y: 1.7415562, z: 0.10224342}
  - {x: 0.0625, y: 1.7956122, z: 0.048236847}
  - {x: 0.09375, y: 1.9728684, z: 0.4409857}
  - {x: 0.0625, y: 2.039487, z: 0.41322142}
  - {x: -0.0625, y: 2.03951, z: 0.41321182}
  - {x: -0.09375, y: 1.97288, z: 0.4409809}
  - {x: -0.0625, y: 2.125, z: 0.71875}
  - {x: -0.09375, y: 2.0625, z: 0.75}
  - {x: 0.09375, y: 2.0625, z: 0.75}
  - {x: 0.09375, y: 1.9728684, z: 0.4409857}
  - {x: 0.0625, y: 2.125, z: 0.71875}
  - {x: 0.0625, y: 2.039487, z: 0.41322142}
  - {x: 0.0625, y: 1.5625, z: -0.15625}
  - {x: 0.09375, y: 1.7415562, z: 0.10224342}
  - {x: 0.0625, y: 1.5625, z: -0.15625}
  - {x: 0.0625, y: 1.7956122, z: 0.048236847}
  - {x: -0.0625, y: 2.03951, z: 0.41321182}
  - {x: -0.0625, y: 1.7956297, z: 0.048219085}
  - {x: -0.09375, y: 1.97288, z: 0.4409809}
  - {x: -0.09375, y: 1.7415649, z: 0.10223454}
  - {x: -0.0625, y: 1.7956297, z: 0.048219085}
  - {x: -0.0625, y: 1.5625, z: -0.15625}
  - {x: -0.09375, y: 1.7415649, z: 0.10223454}
  - {x: -0.0625, y: 1.5625, z: -0.15625}
  - {x: 0.0625, y: 1.5625, z: -0.15625}
  - {x: 0.09375, y: 1.4726462, z: -0.125}
  - {x: -0.09375, y: 1.472651, z: -0.125}
  - {x: -0.0625, y: 1.5625, z: -0.15625}
  - {x: -0.15625, y: 0.61739707, z: -0.0625}
  - {x: -0.28125, y: 0.4375, z: -0.125}
  - {x: -0.28125, y: 0.46875, z: -0.03125}
  - {x: -0.15625, y: 0.5, z: -0.234375}
  - {x: 0.15625, y: 0.5, z: -0.234375}
  - {x: 0.15625, y: 0.6174066, z: -0.0625}
  - {x: 0.28125, y: 0.4375, z: -0.125}
  - {x: 0.28125, y: 0.46875, z: -0.03125}
  m_Textures0:
  - {x: 0.35198593, y: 0.46800202}
  - {x: 0.43990168, y: 0.46835342}
  - {x: 0.4387855, y: 0.3317878}
  - {x: 0.35576564, y: 0.33164108}
  - {x: 0.45266682, y: 0.1787686}
  - {x: 0.45275214, y: 0.0023909567}
  - {x: 0.34285742, y: 0.0019499514}
  - {x: 0.3419116, y: 0.17844373}
  - {x: 0.4387855, y: 0.3317878}
  - {x: 0.45266682, y: 0.1787686}
  - {x: 0.3419116, y: 0.17844373}
  - {x: 0.35576564, y: 0.33164108}
  - {x: 0.5078661, y: 0.48509172}
  - {x: 0.48610458, y: 0.35319206}
  - {x: 0.464474, y: 0.45942393}
  - {x: 0.4387855, y: 0.3317878}
  - {x: 0.31003773, y: 0.35326976}
  - {x: 0.28828073, y: 0.48510125}
  - {x: 0.35576564, y: 0.33164108}
  - {x: 0.33167332, y: 0.45941654}
  - {x: 0.48610458, y: 0.35319206}
  - {x: 0.5142158, y: 0.21896362}
  - {x: 0.4387855, y: 0.3317878}
  - {x: 0.45266682, y: 0.1787686}
  - {x: 0.28041247, y: 0.21839173}
  - {x: 0.31003773, y: 0.35326976}
  - {x: 0.3419116, y: 0.17844373}
  - {x: 0.35576564, y: 0.33164108}
  - {x: 0.60703224, y: 0.4147733}
  - {x: 0.71715504, y: 0.41476703}
  - {x: 0.60703224, y: 0.2730231}
  - {x: 0.71715504, y: 0.2730231}
  - {x: 0.9111582, y: 0.8736283}
  - {x: 0.8247297, y: 0.7558738}
  - {x: 0.82314616, y: 0.87243265}
  - {x: 0.9127416, y: 0.75706947}
  - {x: 0.9144458, y: 0.63163304}
  - {x: 0.82815623, y: 0.50364596}
  - {x: 0.8264337, y: 0.6304374}
  - {x: 0.9161682, y: 0.5048441}
  - {x: 0.918021, y: 0.36832935}
  - {x: 0.8208737, y: 0.2294804}
  - {x: 0.8300089, y: 0.36713478}
  - {x: 0.93088883, y: 0.2309703}
  - {x: 0.93088883, y: 0.2309703}
  - {x: 0.82397634, y: 0.00089587364}
  - {x: 0.8208737, y: 0.2294804}
  - {x: 0.9339912, y: 0.0023910408}
  - {x: 0.8247297, y: 0.7558738}
  - {x: 0.9127416, y: 0.75706947}
  - {x: 0.9144458, y: 0.63163304}
  - {x: 0.8264337, y: 0.6304374}
  - {x: 0.8300089, y: 0.36713478}
  - {x: 0.91616815, y: 0.50484395}
  - {x: 0.918021, y: 0.36832935}
  - {x: 0.8281562, y: 0.50364614}
  - {x: 0.5894715, y: 0.58175606}
  - {x: 0.5689703, y: 0.61284274}
  - {x: 0.68739814, y: 0.66027486}
  - {x: 0.68691474, y: 0.6963967}
  - {x: 0.10928463, y: 0.69643176}
  - {x: 0.10878518, y: 0.66029894}
  - {x: 0.001711217, y: 0.73112345}
  - {x: 0, y: 0.7017991}
  - {x: 0.42696786, y: 0.96392727}
  - {x: 0.3610309, y: 0.96367484}
  - {x: 0.34993622, y: 0.99110645}
  - {x: 0.43785217, y: 0.9914431}
  - {x: 0.41607288, y: 0.93931234}
  - {x: 0.3721149, y: 0.93914324}
  - {x: 0.3610309, y: 0.96367484}
  - {x: 0.42696786, y: 0.96392727}
  - {x: 0.7962054, y: 0.7017212}
  - {x: 0.68739814, y: 0.66027486}
  - {x: 0.79450834, y: 0.73103493}
  - {x: 0.68691474, y: 0.6963967}
  - {x: 0.4898479, y: 0.5178271}
  - {x: 0.5894715, y: 0.58175606}
  - {x: 0.5078661, y: 0.48509172}
  - {x: 0.5894715, y: 0.58175606}
  - {x: 0.4898479, y: 0.5178271}
  - {x: 0.5689703, y: 0.61284274}
  - {x: 0.10928463, y: 0.69643176}
  - {x: 0.22720647, y: 0.61284405}
  - {x: 0.10878518, y: 0.66029894}
  - {x: 0.20669182, y: 0.5817591}
  - {x: 0.22720647, y: 0.61284405}
  - {x: 0.3063097, y: 0.5178312}
  - {x: 0.20669182, y: 0.5817591}
  - {x: 0.28828073, y: 0.48510125}
  - {x: 0.20669182, y: 0.5817591}
  - {x: 0.3063097, y: 0.5178312}
  - {x: 0.43990168, y: 0.46835342}
  - {x: 0.36272305, y: 0.5306544}
  - {x: 0.42865992, y: 0.5309141}
  - {x: 0.35198593, y: 0.4680018}
  - {x: 0.33167332, y: 0.45941654}
  - {x: 0.4898479, y: 0.5178271}
  - {x: 0.5078661, y: 0.48509172}
  - {x: 0.464474, y: 0.45942393}
  - {x: 0.37314713, y: 0.673199}
  - {x: 0.41710505, y: 0.6733729}
  - {x: 0.41753784, y: 0.56432545}
  - {x: 0.3735799, y: 0.564151}
  - {x: 0.41710505, y: 0.6733729}
  - {x: 0.37314713, y: 0.673199}
  - {x: 0.3725431, y: 0.82756984}
  - {x: 0.41650105, y: 0.8277402}
  - {x: 0.41650105, y: 0.8277402}
  - {x: 0.3725431, y: 0.82756984}
  - {x: 0.3721149, y: 0.93914354}
  - {x: 0.41607288, y: 0.93931216}
  - {x: 0.523492, y: 0.17727597}
  - {x: 0.6169892, y: 0.027109105}
  - {x: 0.49352196, y: 0.15951869}
  - {x: 0.5162094, y: 0.0050511044}
  - {x: 0.17346399, y: 0.025314165}
  - {x: 0.26563177, y: 0.17620389}
  - {x: 0.274441, y: 0.004078523}
  - {x: 0.29571152, y: 0.1587249}
  - {x: 0.8208737, y: 0.22948033}
  - {x: 0.82397634, y: 0.00089587364}
  - {x: 0.77735454, y: 0.17564777}
  - {x: 0.7579674, y: 0}
  - {x: 0.60703224, y: 0.4147733}
  - {x: 0.60703224, y: 0.2730231}
  - {x: 0.5409586, y: 0.41477677}
  - {x: 0.5409586, y: 0.31156608}
  - {x: 0.45275214, y: 0.0023909567}
  - {x: 0.45266682, y: 0.1787686}
  - {x: 0.51620936, y: 0.0050511044}
  - {x: 0.49352196, y: 0.15951869}
  - {x: 0.9339912, y: 0.0023910408}
  - {x: 0.9308888, y: 0.23097037}
  - {x: 1, y: 0.0032869144}
  - {x: 0.9753817, y: 0.17833564}
  - {x: 0.71715504, y: 0.2730231}
  - {x: 0.71715504, y: 0.41476703}
  - {x: 0.78322875, y: 0.31156608}
  - {x: 0.78322875, y: 0.41476378}
  - {x: 0.3419116, y: 0.17844373}
  - {x: 0.34285742, y: 0.0019499514}
  - {x: 0.29571152, y: 0.1587249}
  - {x: 0.27444106, y: 0.004078523}
  - {x: 0.5689703, y: 0.61284274}
  - {x: 0.54846907, y: 0.63322365}
  - {x: 0.68691474, y: 0.6963967}
  - {x: 0.67555064, y: 0.7214152}
  - {x: 0.12066259, y: 0.7214605}
  - {x: 0.10928463, y: 0.69643176}
  - {x: 0.014300918, y: 0.7546931}
  - {x: 0.001711217, y: 0.73112345}
  - {x: 0.79450834, y: 0.73103493}
  - {x: 0.68691474, y: 0.6963967}
  - {x: 0.78193057, y: 0.75459814}
  - {x: 0.67555064, y: 0.7214152}
  - {x: 0.47727013, y: 0.5507613}
  - {x: 0.5689703, y: 0.61284274}
  - {x: 0.47727013, y: 0.5507613}
  - {x: 0.54846907, y: 0.63322365}
  - {x: 0.12066259, y: 0.7214605}
  - {x: 0.24772117, y: 0.63323045}
  - {x: 0.10928463, y: 0.69643176}
  - {x: 0.22720647, y: 0.61284405}
  - {x: 0.24772117, y: 0.63323045}
  - {x: 0.3188994, y: 0.5507639}
  - {x: 0.22720647, y: 0.61284405}
  - {x: 0.3188994, y: 0.5507639}
  - {x: 0.41753778, y: 0.56432533}
  - {x: 0.42865992, y: 0.5309141}
  - {x: 0.36272305, y: 0.5306544}
  - {x: 0.3735799, y: 0.5641511}
  - {x: 0.28041247, y: 0.21839173}
  - {x: 0.29571152, y: 0.1587249}
  - {x: 0.26563177, y: 0.17620389}
  - {x: 0.3419116, y: 0.17844373}
  - {x: 0.45266682, y: 0.1787686}
  - {x: 0.5142158, y: 0.21896362}
  - {x: 0.49352196, y: 0.15951869}
  - {x: 0.523492, y: 0.17727597}
  m_Textures2: []
  m_Textures3: []
  m_Tangents:
  - {x: 0.99999636, y: -0.0025946489, z: -0.00079217245, w: -1}
  - {x: 0.99999243, y: -0.003697599, z: -0.0011899924, w: -1}
  - {x: 0.99999624, y: -0.002724961, z: -0.00006303256, w: -1}
  - {x: 0.9999986, y: -0.0016267151, z: 0.000018610795, w: -1}
  - {x: 0.99999404, y: -0.00346834, z: 0.00007696465, w: -1}
  - {x: 0.99999624, y: -0.0020002453, z: 0.0018791328, w: -1}
  - {x: 0.9999972, y: -0.0017374391, z: 0.0016322391, w: -1}
  - {x: 0.9999957, y: -0.0029390457, z: 0.00009013346, w: -1}
  - {x: 0.9999974, y: -0.0022859066, z: -0.000041150935, w: -1}
  - {x: 0.9999956, y: -0.0029773, z: 0.00006606815, w: -1}
  - {x: 0.9999974, y: -0.0023077633, z: 0.00007611495, w: -1}
  - {x: 0.9999986, y: -0.0016630845, z: 0.00001679873, w: -1}
  - {x: 0.13359359, y: -0.016220583, z: 0.99090344, w: -1}
  - {x: 0.017235074, y: -0.018786488, z: 0.999675, w: -1}
  - {x: 0.0750223, y: -0.009622225, z: 0.99713546, w: -1}
  - {x: 0.019640286, y: -0.0015565859, z: 0.9998059, w: -1}
  - {x: 0.019881316, y: 0.00075031025, z: -0.99980205, w: -1}
  - {x: 0.099326216, y: 0.011385681, z: -0.9949899, w: -1}
  - {x: 0.016007077, y: 0.022470769, z: -0.9996194, w: -1}
  - {x: 0.07865825, y: 0.036432706, z: -0.99623567, w: -1}
  - {x: 0.016174173, y: 0.009671823, z: 0.99982244, w: -1}
  - {x: 0.038470905, y: 0.011849572, z: 0.99918944, w: -1}
  - {x: 0.01919036, y: 0.011166581, z: 0.99975353, w: -1}
  - {x: 0.044499595, y: 0.013472694, z: 0.99891853, w: -1}
  - {x: 0.047397584, y: -0.02073366, z: -0.99866086, w: -1}
  - {x: 0.019430123, y: -0.012135869, z: -0.9997376, w: -1}
  - {x: 0.038757045, y: -0.012826113, z: -0.9991663, w: -1}
  - {x: 0.015070592, y: -0.0051391455, z: -0.9998732, w: -1}
  - {x: -1, y: 0, z: 0.0000001836283, w: -1}
  - {x: -1, y: 0, z: 0.000000091814144, w: -1}
  - {x: -1, y: -0.00000004581767, z: 0.000000043043464, w: -1}
  - {x: -1, y: 0, z: 0, w: -1}
  - {x: -0.99990773, y: -0.004487493, z: -0.012821408, w: -1}
  - {x: -0.9999102, y: -0.006413658, z: -0.011772028, w: -1}
  - {x: -0.99990773, y: -0.004487493, z: -0.012821409, w: -1}
  - {x: -0.9999102, y: -0.0064136586, z: -0.011772029, w: -1}
  - {x: -0.9999087, y: -0.0093232505, z: -0.009786434, w: -1}
  - {x: -0.9999145, y: -0.011853219, z: -0.0055220285, w: -1}
  - {x: -0.9999087, y: -0.009326951, z: -0.009781307, w: -1}
  - {x: -0.99991465, y: -0.011848096, z: -0.0055249734, w: -1}
  - {x: -0.99991083, y: -0.013346168, z: 0.000262023, w: -1}
  - {x: -0.99990815, y: -0.013108112, z: 0.0034340692, w: -1}
  - {x: -0.99991083, y: -0.013345729, z: 0.00026202403, w: -1}
  - {x: -0.99990815, y: -0.013111077, z: 0.0034216465, w: -1}
  - {x: -0.9999083, y: -0.013101393, z: 0.0034191045, w: -1}
  - {x: -0.9999081, y: -0.012914353, z: 0.004131726, w: -1}
  - {x: -0.99990827, y: -0.013096241, z: 0.003430953, w: -1}
  - {x: -0.9999081, y: -0.012921939, z: 0.0041106185, w: -1}
  - {x: -0.9999102, y: -0.0064136595, z: -0.011772031, w: -1}
  - {x: -0.9999102, y: -0.006413659, z: -0.011772032, w: -1}
  - {x: -0.9999087, y: -0.009322457, z: -0.009785602, w: -1}
  - {x: -0.9999087, y: -0.0093269525, z: -0.009781308, w: -1}
  - {x: -0.99991095, y: -0.013345047, z: 0.00026201052, w: -1}
  - {x: -0.99991465, y: -0.011843919, z: -0.005523032, w: -1}
  - {x: -0.99991083, y: -0.013345732, z: 0.00026201436, w: -1}
  - {x: -0.99991465, y: -0.011846596, z: -0.0055189496, w: -1}
  - {x: 0.2210447, y: 0.015610988, z: 0.97513866, w: -1}
  - {x: 0.24073192, y: 0.022677504, z: 0.9703268, w: -1}
  - {x: 0.1603294, y: -0.0016004237, z: 0.9870623, w: -1}
  - {x: 0.16768295, y: -0.0019172538, z: 0.98583907, w: -1}
  - {x: 0.16372918, y: -0.009333345, z: -0.9864612, w: -1}
  - {x: 0.15860657, y: -0.0038038164, z: -0.9873346, w: -1}
  - {x: 0.123406775, y: 0.00719006, z: -0.99233013, w: -1}
  - {x: 0.14012384, y: 0.0037652475, z: -0.9901268, w: -1}
  - {x: 0.999993, y: 0.0036266118, z: -0.000856127, w: -1}
  - {x: 0.99999315, y: 0.0036261887, z: -0.0008560271, w: -1}
  - {x: 0.9999926, y: 0.0038287144, z: 0, w: -1}
  - {x: 0.9999927, y: 0.003829162, z: 0, w: -1}
  - {x: 0.9999926, y: 0.003432371, z: -0.0017161855, w: -1}
  - {x: 0.9999926, y: 0.003440587, z: -0.0017202935, w: -1}
  - {x: 0.999993, y: 0.0036349408, z: -0.00085809315, w: -1}
  - {x: 0.999993, y: 0.0036262395, z: -0.000856039, w: -1}
  - {x: 0.1399955, y: -0.0034376064, z: 0.9901461, w: -1}
  - {x: 0.15850133, y: 0.0042010597, z: 0.9873498, w: -1}
  - {x: 0.123270646, y: -0.0068053706, z: 0.99234974, w: -1}
  - {x: 0.16360247, y: 0.009786305, z: 0.9864778, w: -1}
  - {x: 0.21524827, y: 0.0152112935, z: 0.9764409, w: -1}
  - {x: 0.2207867, y: 0.016803999, z: 0.97517735, w: -1}
  - {x: 0.13051203, y: 0.0036004826, z: 0.9914402, w: -1}
  - {x: 0.22080448, y: 0.016721852, z: 0.9751748, w: -1}
  - {x: 0.21521984, y: 0.015334864, z: 0.9764452, w: -1}
  - {x: 0.2412029, y: 0.020934477, z: 0.9702489, w: -1}
  - {x: 0.16769776, y: 0.0020524682, z: -0.98583627, w: -1}
  - {x: 0.2407591, y: -0.022499751, z: -0.9703241, w: -1}
  - {x: 0.16036329, y: 0.00177264, z: -0.9870565, w: -1}
  - {x: 0.22107783, y: -0.015393993, z: -0.9751347, w: -1}
  - {x: 0.24118744, y: -0.020914258, z: -0.97025317, w: -1}
  - {x: 0.22519661, y: -0.017777555, z: -0.9741512, w: -1}
  - {x: 0.22080627, y: -0.016649928, z: -0.9751755, w: -1}
  - {x: 0.09818981, y: 0.001634125, z: -0.9951663, w: -1}
  - {x: 0.22078604, y: -0.016743332, z: -0.97517854, w: -1}
  - {x: 0.22538495, y: -0.01694788, z: -0.9741223, w: -1}
  - {x: 0.9999923, y: -0.0037475836, z: -0.0012070701, w: -1}
  - {x: 0.99999213, y: -0.0035834296, z: -0.0016875354, w: -1}
  - {x: 0.9999922, y: -0.0035692789, z: -0.0017205477, w: -1}
  - {x: 0.9999922, y: -0.0037565795, z: -0.0011891824, w: -1}
  - {x: 0.07540281, y: 0.011156745, z: -0.9970908, w: -1}
  - {x: 0.21542054, y: 0.014461229, z: 0.97641426, w: -1}
  - {x: 0.13168663, y: -0.0039147763, z: 0.9912837, w: -1}
  - {x: 0.07518569, y: -0.010880757, z: 0.99711025, w: -1}
  - {x: 0.9999923, y: -0.0026974997, z: -0.0028504278, w: -1}
  - {x: 0.9999923, y: -0.0027266725, z: -0.0028072319, w: -1}
  - {x: 0.99999213, y: -0.0030492002, z: -0.0025420217, w: -1}
  - {x: 0.99999213, y: -0.0029837973, z: -0.0026169734, w: -1}
  - {x: 0.9999924, y: -0.0027260145, z: -0.0028064814, w: -1}
  - {x: 0.9999924, y: -0.002688759, z: -0.00284046, w: -1}
  - {x: 0.9999926, y: -0.001783852, z: -0.0034014138, w: -1}
  - {x: 0.9999926, y: -0.0017379374, z: -0.0034212924, w: -1}
  - {x: 0.9999928, y: -0.0017282525, z: -0.0034002273, w: -1}
  - {x: 0.9999926, y: -0.001783374, z: -0.0034003737, w: -1}
  - {x: 0.9999926, y: -0.0011315536, z: -0.0036745758, w: -1}
  - {x: 0.9999926, y: -0.0010338975, z: -0.0036939974, w: -1}
  - {x: 0.063503295, y: -0.20775904, z: 0.97611654, w: -1}
  - {x: 0.046876784, y: -0.20970915, z: 0.9766395, w: -1}
  - {x: 0.046876784, y: -0.20970915, z: 0.9766395, w: -1}
  - {x: 0.03022904, y: -0.21160159, z: 0.97688836, w: -1}
  - {x: 0.027199112, y: 0.20399474, z: -0.978594, w: -1}
  - {x: 0.051880192, y: 0.20063958, z: -0.97829044, w: -1}
  - {x: 0.051880192, y: 0.20063958, z: -0.97829044, w: -1}
  - {x: 0.07652915, y: 0.19715986, z: -0.9773798, w: -1}
  - {x: -0.9919275, y: 0.025828686, z: 0.124148026, w: -1}
  - {x: -0.9978976, y: 0.006536362, z: 0.06447865, w: -1}
  - {x: -0.9978976, y: 0.006536362, z: 0.06447865, w: -1}
  - {x: -0.999908, y: -0.012790079, z: 0.004521017, w: -1}
  - {x: -1, y: -0.000018607554, z: -0.0000003154078, w: -1}
  - {x: -1, y: -0.000018607552, z: -0.0000001429063, w: -1}
  - {x: -1, y: -0.000018607552, z: -0.0000001429063, w: -1}
  - {x: -1, y: -0.000018607552, z: 0.000000029595173, w: -1}
  - {x: 0.8642014, y: -0.034741208, z: 0.5019452, w: -1}
  - {x: 0.797214, y: -0.041491646, z: 0.60226923, w: -1}
  - {x: 0.797214, y: -0.041491646, z: 0.60226923, w: -1}
  - {x: 0.7182349, y: -0.048891164, z: 0.6940809, w: -1}
  - {x: -0.9999081, y: -0.012921343, z: 0.004112928, w: -1}
  - {x: -0.9953075, y: -0.04216948, z: -0.0870908, w: -1}
  - {x: -0.9953075, y: -0.04216948, z: -0.0870908, w: -1}
  - {x: -0.98152316, y: -0.07115528, z: -0.17762065, w: -1}
  - {x: -1, y: -0.000017081325, z: -0.000000019008773, w: -1}
  - {x: -1, y: -0.000017081325, z: 0.00000025385717, w: -1}
  - {x: -1, y: -0.000017081325, z: 0.00000025385717, w: -1}
  - {x: -1, y: -0.000017081325, z: 0.00000052672306, w: -1}
  - {x: 0.7416356, y: 0.03937987, z: -0.6696461, w: -1}
  - {x: 0.80784047, y: 0.03347852, z: -0.5884496, w: -1}
  - {x: 0.80784047, y: 0.03347852, z: -0.5884496, w: -1}
  - {x: 0.8653054, y: 0.027678385, z: -0.50048023, w: -1}
  - {x: 0.24092968, y: 0.021945965, z: 0.9702945, w: -1}
  - {x: 0.25639597, y: 0.027039774, z: 0.9661935, w: -1}
  - {x: 0.16816954, y: -0.0033178572, z: 0.98575246, w: -1}
  - {x: 0.17906798, y: -0.0017485193, z: 0.9838351, w: -1}
  - {x: 0.17366824, y: -0.012268003, z: -0.98472786, w: -1}
  - {x: 0.16464144, y: -0.006722292, z: -0.9863306, w: -1}
  - {x: 0.12438659, y: 0.007634747, z: -0.9922045, w: -1}
  - {x: 0.1239011, y: 0.008453235, z: -0.9922586, w: -1}
  - {x: 0.123774216, y: -0.008092019, z: 0.9922774, w: -1}
  - {x: 0.16453968, y: 0.007104764, z: 0.9863449, w: -1}
  - {x: 0.124263324, y: -0.0072621237, z: 0.9922227, w: -1}
  - {x: 0.17356174, y: 0.01266122, z: 0.9847415, w: -1}
  - {x: 0.27967212, y: 0.031016873, z: 0.9595944, w: -1}
  - {x: 0.24147299, y: 0.019933596, z: 0.9702028, w: -1}
  - {x: 0.27969947, y: 0.030905632, z: 0.95958996, w: -1}
  - {x: 0.25743237, y: 0.023562538, z: 0.96600896, w: -1}
  - {x: 0.17905602, y: 0.0018356141, z: -0.9838372, w: -1}
  - {x: 0.25639725, y: -0.026938898, z: -0.966196, w: -1}
  - {x: 0.1681708, y: 0.0034141783, z: -0.985752, w: -1}
  - {x: 0.24093877, y: -0.02183508, z: -0.9702946, w: -1}
  - {x: 0.25738302, y: -0.023631006, z: -0.96602046, w: -1}
  - {x: 0.27967986, y: -0.030980658, z: -0.95959336, w: -1}
  - {x: 0.24143277, y: -0.02000515, z: -0.9702113, w: -1}
  - {x: 0.27966198, y: -0.031053372, z: -0.9595962, w: -1}
  - {x: 0.99999213, y: -0.0037448555, z: 0.0012980313, w: -1}
  - {x: 0.99999213, y: -0.0037462674, z: 0.0012940711, w: -1}
  - {x: 0.99999213, y: -0.0037448555, z: 0.0012980313, w: -1}
  - {x: 0.99999213, y: -0.0037434436, z: 0.0013019913, w: -1}
  - {x: 0.48702744, y: 0.13783164, z: -0.8624423, w: -1}
  - {x: 0.48702744, y: 0.13783164, z: -0.8624423, w: -1}
  - {x: 0.423044, y: 0.24780588, z: -0.87156534, w: -1}
  - {x: 0.54110515, y: 0.019702112, z: -0.8407242, w: -1}
  - {x: 0.5460197, y: -0.027399058, z: 0.8373242, w: -1}
  - {x: 0.49309078, y: -0.14760634, z: 0.8573645, w: -1}
  - {x: 0.49309078, y: -0.14760634, z: 0.8573645, w: -1}
  - {x: 0.4300988, y: -0.25906724, z: 0.8648116, w: -1}
  m_Colors:
  - {r: 1, g: 1, b: 1, a: 1}
  - {r: 1, g: 1, b: 1, a: 1}
  - {r: 1, g: 1, b: 1, a: 1}
  - {r: 1, g: 1, b: 1, a: 1}
  - {r: 1, g: 1, b: 1, a: 1}
  - {r: 1, g: 1, b: 1, a: 1}
  - {r: 1, g: 1, b: 1, a: 1}
  - {r: 1, g: 1, b: 1, a: 1}
  - {r: 1, g: 1, b: 1, a: 1}
  - {r: 1, g: 1, b: 1, a: 1}
  - {r: 1, g: 1, b: 1, a: 1}
  - {r: 1, g: 1, b: 1, a: 1}
  - {r: 1, g: 1, b: 1, a: 1}
  - {r: 1, g: 1, b: 1, a: 1}
  - {r: 1, g: 1, b: 1, a: 1}
  - {r: 1, g: 1, b: 1, a: 1}
  - {r: 1, g: 1, b: 1, a: 1}
  - {r: 1, g: 1, b: 1, a: 1}
  - {r: 1, g: 1, b: 1, a: 1}
  - {r: 1, g: 1, b: 1, a: 1}
  - {r: 1, g: 1, b: 1, a: 1}
  - {r: 1, g: 1, b: 1, a: 1}
  - {r: 1, g: 1, b: 1, a: 1}
  - {r: 1, g: 1, b: 1, a: 1}
  - {r: 1, g: 1, b: 1, a: 1}
  - {r: 1, g: 1, b: 1, a: 1}
  - {r: 1, g: 1, b: 1, a: 1}
  - {r: 1, g: 1, b: 1, a: 1}
  - {r: 1, g: 1, b: 1, a: 1}
  - {r: 1, g: 1, b: 1, a: 1}
  - {r: 1, g: 1, b: 1, a: 1}
  - {r: 1, g: 1, b: 1, a: 1}
  - {r: 1, g: 1, b: 1, a: 1}
  - {r: 1, g: 1, b: 1, a: 1}
  - {r: 1, g: 1, b: 1, a: 1}
  - {r: 1, g: 1, b: 1, a: 1}
  - {r: 1, g: 1, b: 1, a: 1}
  - {r: 1, g: 1, b: 1, a: 1}
  - {r: 1, g: 1, b: 1, a: 1}
  - {r: 1, g: 1, b: 1, a: 1}
  - {r: 1, g: 1, b: 1, a: 1}
  - {r: 1, g: 1, b: 1, a: 1}
  - {r: 1, g: 1, b: 1, a: 1}
  - {r: 1, g: 1, b: 1, a: 1}
  - {r: 1, g: 1, b: 1, a: 1}
  - {r: 1, g: 1, b: 1, a: 1}
  - {r: 1, g: 1, b: 1, a: 1}
  - {r: 1, g: 1, b: 1, a: 1}
  - {r: 1, g: 1, b: 1, a: 1}
  - {r: 1, g: 1, b: 1, a: 1}
  - {r: 1, g: 1, b: 1, a: 1}
  - {r: 1, g: 1, b: 1, a: 1}
  - {r: 1, g: 1, b: 1, a: 1}
  - {r: 1, g: 1, b: 1, a: 1}
  - {r: 1, g: 1, b: 1, a: 1}
  - {r: 1, g: 1, b: 1, a: 1}
  - {r: 1, g: 1, b: 1, a: 1}
  - {r: 1, g: 1, b: 1, a: 1}
  - {r: 1, g: 1, b: 1, a: 1}
  - {r: 1, g: 1, b: 1, a: 1}
  - {r: 1, g: 1, b: 1, a: 1}
  - {r: 1, g: 1, b: 1, a: 1}
  - {r: 1, g: 1, b: 1, a: 1}
  - {r: 1, g: 1, b: 1, a: 1}
  - {r: 1, g: 1, b: 1, a: 1}
  - {r: 1, g: 1, b: 1, a: 1}
  - {r: 1, g: 1, b: 1, a: 1}
  - {r: 1, g: 1, b: 1, a: 1}
  - {r: 1, g: 1, b: 1, a: 1}
  - {r: 1, g: 1, b: 1, a: 1}
  - {r: 1, g: 1, b: 1, a: 1}
  - {r: 1, g: 1, b: 1, a: 1}
  - {r: 1, g: 1, b: 1, a: 1}
  - {r: 1, g: 1, b: 1, a: 1}
  - {r: 1, g: 1, b: 1, a: 1}
  - {r: 1, g: 1, b: 1, a: 1}
  - {r: 1, g: 1, b: 1, a: 1}
  - {r: 1, g: 1, b: 1, a: 1}
  - {r: 1, g: 1, b: 1, a: 1}
  - {r: 1, g: 1, b: 1, a: 1}
  - {r: 1, g: 1, b: 1, a: 1}
  - {r: 1, g: 1, b: 1, a: 1}
  - {r: 1, g: 1, b: 1, a: 1}
  - {r: 1, g: 1, b: 1, a: 1}
  - {r: 1, g: 1, b: 1, a: 1}
  - {r: 1, g: 1, b: 1, a: 1}
  - {r: 1, g: 1, b: 1, a: 1}
  - {r: 1, g: 1, b: 1, a: 1}
  - {r: 1, g: 1, b: 1, a: 1}
  - {r: 1, g: 1, b: 1, a: 1}
  - {r: 1, g: 1, b: 1, a: 1}
  - {r: 1, g: 1, b: 1, a: 1}
  - {r: 1, g: 1, b: 1, a: 1}
  - {r: 1, g: 1, b: 1, a: 1}
  - {r: 1, g: 1, b: 1, a: 1}
  - {r: 1, g: 1, b: 1, a: 1}
  - {r: 1, g: 1, b: 1, a: 1}
  - {r: 1, g: 1, b: 1, a: 1}
  - {r: 1, g: 1, b: 1, a: 1}
  - {r: 1, g: 1, b: 1, a: 1}
  - {r: 1, g: 1, b: 1, a: 1}
  - {r: 1, g: 1, b: 1, a: 1}
  - {r: 1, g: 1, b: 1, a: 1}
  - {r: 1, g: 1, b: 1, a: 1}
  - {r: 1, g: 1, b: 1, a: 1}
  - {r: 1, g: 1, b: 1, a: 1}
  - {r: 1, g: 1, b: 1, a: 1}
  - {r: 1, g: 1, b: 1, a: 1}
  - {r: 1, g: 1, b: 1, a: 1}
  - {r: 1, g: 1, b: 1, a: 1}
  - {r: 1, g: 1, b: 1, a: 1}
  - {r: 1, g: 1, b: 1, a: 1}
  - {r: 1, g: 1, b: 1, a: 1}
  - {r: 1, g: 1, b: 1, a: 1}
  - {r: 1, g: 1, b: 1, a: 1}
  - {r: 1, g: 1, b: 1, a: 1}
  - {r: 1, g: 1, b: 1, a: 1}
  - {r: 1, g: 1, b: 1, a: 1}
  - {r: 1, g: 1, b: 1, a: 1}
  - {r: 1, g: 1, b: 1, a: 1}
  - {r: 1, g: 1, b: 1, a: 1}
  - {r: 1, g: 1, b: 1, a: 1}
  - {r: 1, g: 1, b: 1, a: 1}
  - {r: 1, g: 1, b: 1, a: 1}
  - {r: 1, g: 1, b: 1, a: 1}
  - {r: 1, g: 1, b: 1, a: 1}
  - {r: 1, g: 1, b: 1, a: 1}
  - {r: 1, g: 1, b: 1, a: 1}
  - {r: 1, g: 1, b: 1, a: 1}
  - {r: 1, g: 1, b: 1, a: 1}
  - {r: 1, g: 1, b: 1, a: 1}
  - {r: 1, g: 1, b: 1, a: 1}
  - {r: 1, g: 1, b: 1, a: 1}
  - {r: 1, g: 1, b: 1, a: 1}
  - {r: 1, g: 1, b: 1, a: 1}
  - {r: 1, g: 1, b: 1, a: 1}
  - {r: 1, g: 1, b: 1, a: 1}
  - {r: 1, g: 1, b: 1, a: 1}
  - {r: 1, g: 1, b: 1, a: 1}
  - {r: 1, g: 1, b: 1, a: 1}
  - {r: 1, g: 1, b: 1, a: 1}
  - {r: 1, g: 1, b: 1, a: 1}
  - {r: 1, g: 1, b: 1, a: 1}
  - {r: 1, g: 1, b: 1, a: 1}
  - {r: 1, g: 1, b: 1, a: 1}
  - {r: 1, g: 1, b: 1, a: 1}
  - {r: 1, g: 1, b: 1, a: 1}
  - {r: 1, g: 1, b: 1, a: 1}
  - {r: 1, g: 1, b: 1, a: 1}
  - {r: 1, g: 1, b: 1, a: 1}
  - {r: 1, g: 1, b: 1, a: 1}
  - {r: 1, g: 1, b: 1, a: 1}
  - {r: 1, g: 1, b: 1, a: 1}
  - {r: 1, g: 1, b: 1, a: 1}
  - {r: 1, g: 1, b: 1, a: 1}
  - {r: 1, g: 1, b: 1, a: 1}
  - {r: 1, g: 1, b: 1, a: 1}
  - {r: 1, g: 1, b: 1, a: 1}
  - {r: 1, g: 1, b: 1, a: 1}
  - {r: 1, g: 1, b: 1, a: 1}
  - {r: 1, g: 1, b: 1, a: 1}
  - {r: 1, g: 1, b: 1, a: 1}
  - {r: 1, g: 1, b: 1, a: 1}
  - {r: 1, g: 1, b: 1, a: 1}
  - {r: 1, g: 1, b: 1, a: 1}
  - {r: 1, g: 1, b: 1, a: 1}
  - {r: 1, g: 1, b: 1, a: 1}
  - {r: 1, g: 1, b: 1, a: 1}
  - {r: 1, g: 1, b: 1, a: 1}
  - {r: 1, g: 1, b: 1, a: 1}
  - {r: 1, g: 1, b: 1, a: 1}
  - {r: 1, g: 1, b: 1, a: 1}
  - {r: 1, g: 1, b: 1, a: 1}
  - {r: 1, g: 1, b: 1, a: 1}
  - {r: 1, g: 1, b: 1, a: 1}
  - {r: 1, g: 1, b: 1, a: 1}
  - {r: 1, g: 1, b: 1, a: 1}
  - {r: 1, g: 1, b: 1, a: 1}
  - {r: 1, g: 1, b: 1, a: 1}
  - {r: 1, g: 1, b: 1, a: 1}
  m_UnwrapParameters:
    m_HardAngle: 88
    m_PackMargin: 20
    m_AngleError: 8
    m_AreaError: 15
  m_PreserveMeshAssetOnDestroy: 0
  assetGuid: 
  m_IsSelectable: 1
  m_SelectedFaces: 0200000003000000150000001c0000001d0000001e0000002700000028000000290000002a000000
  m_SelectedEdges:
  - a: 157
    b: 158
  - a: 158
    b: 159
  - a: 159
    b: 157
  - a: 164
    b: 165
  - a: 165
    b: 166
  - a: 166
    b: 164
  - a: 68
    b: 69
  - a: 69
    b: 70
  - a: 71
    b: 68
  - a: 70
    b: 71
  - a: 100
    b: 101
  - a: 101
    b: 102
  - a: 103
    b: 100
  - a: 102
    b: 103
  - a: 104
    b: 105
  - a: 105
    b: 106
  - a: 106
    b: 107
  - a: 107
    b: 104
  - a: 108
    b: 109
  - a: 109
    b: 110
  - a: 110
    b: 111
  - a: 111
    b: 108
  - a: 144
    b: 145
  - a: 146
    b: 144
  - a: 145
    b: 147
  - a: 147
    b: 146
  - a: 148
    b: 149
  - a: 150
    b: 148
  - a: 149
    b: 151
  - a: 151
    b: 150
  - a: 152
    b: 153
  - a: 154
    b: 152
  - a: 153
    b: 155
  - a: 155
    b: 154
  - a: 160
    b: 161
  - a: 162
    b: 160
  - a: 161
    b: 163
  - a: 163
    b: 162
  m_SelectedVertices: 9d0000009e0000009f000000a4000000a5000000a6000000440000004500000046000000470000006400000065000000660000006700000068000000690000006a0000006b0000006c0000006d0000006e0000006f000000900000009100000092000000930000009400000095000000960000009700000098000000990000009a0000009b000000a0000000a1000000a2000000a3000000
