%YAML 1.1
%TAG !u! tag:unity3d.com,2011:
--- !u!1045 &1
EditorBuildSettings:
  m_ObjectHideFlags: 0
  serializedVersion: 2
  m_Scenes:
  - enabled: 1
    path: Assets/Roboto/Scenes/Main.unity
    guid: aacf53d93a7b7e64fb6d2afa174255cd
  - enabled: 1
    path: Assets/Roboto/Scenes/Gameplay.unity
    guid: 4f900925547c542419a5440d76315165
  - enabled: 1
    path: Assets/Roboto/Scenes/GameOverVictory.unity
    guid: 73bb1bdfa34ded04abe694c8221bd723
  - enabled: 1
    path: Assets/Roboto/Scenes/GameOverDefeat.unity
    guid: c45d7dc0f42aa5f459f6a8c49ad5c509
  m_configObjects: {}
